<?xml version="1.0" encoding="UTF-8"?>
<svg width="118px" height="19px" viewBox="0 0 118 19" version="1.1" xmlns="http://www.w3.org/2000/svg" xmlns:xlink="http://www.w3.org/1999/xlink">
    <!-- Generator: Sketch 61.2 (89653) - https://sketch.com -->
    <title>logo</title>
    <desc>Created with Sketch.</desc>
    <g id="Symbols" stroke="none" stroke-width="1" fill="none" fill-rule="evenodd">
        <g id="Header" transform="translate(0.000000, -1.000000)" fill="#979797">
            <g id="logo">
                <g>
                    <text id="Renzo-Diaz" font-family="Roboto-Regular, Roboto" font-size="18" font-weight="normal">
                        <tspan x="29" y="17">Renzo Diaz</tspan>
                    </text>
                    <g id="bx-bx-coffee" transform="translate(0.000000, 1.000000)" fill-rule="nonzero">
                        <g id="Icon">
                            <path d="M2,0 L4,0 L4,3 L2,3 L2,0 Z M6,0 L8,0 L8,3 L6,3 L6,0 Z M10,0 L12,0 L12,3 L10,3 L10,0 Z M16,7 L14,7 L14,5 L0,5 L0,16 C0,17.654 1.346,19 3,19 L11,19 C12.654,19 14,17.654 14,16 L16,16 C17.103,16 18,15.103 18,14 L18,9 C18,7.897 17.103,7 16,7 Z M12,16 C12,16.5522847 11.5522847,17 11,17 L3,17 C2.44771525,17 2,16.5522847 2,16 L2,7 L12,7 L12,16 Z M14,14 L14,9 L16,9 L16.002,14 L14,14 Z" id="Icon-Shape"></path>
                        </g>
                    </g>
                </g>
            </g>
        </g>
    </g>
</svg>